Fixed_Point_Unit.vcd
$date
	Tue Jul 02 22:05:33 2024
$end
$version
	Icarus Verilog
$end
$timescale
	1ns
$end
$scope module Fixed_Point_Unit_Testbench $end
$var wire 32 ! fpu_result [31:0] $end
$var wire 1 " fpu_ready $end
$var parameter 32 # CLK_PERIOD $end
$var reg 1 $ clk $end
$var reg 32 % operand_1 [31:0] $end
$var reg 32 & operand_2 [31:0] $end
$var reg 2 ' operation [1:0] $end
$var reg 1 ( reset $end
$scope module uut $end
$var wire 1 $ clk $end
$var wire 32 ) operand_1 [31:0] $end
$var wire 32 * operand_2 [31:0] $end
$var wire 2 + operation [1:0] $end
$var wire 1 ( reset $end
$var wire 32 , mult_intermediate [31:0] $end
$var parameter 2 - CALCULATE $end
$var parameter 2 . DONE $end
$var parameter 32 / FBITS $end
$var parameter 2 0 IDLE $end
$var parameter 32 1 WIDTH $end
$var reg 66 2 m [65:0] $end
$var reg 16 3 mult_op1 [15:0] $end
$var reg 16 4 mult_op2 [15:0] $end
$var reg 1 5 mult_ready $end
$var reg 64 6 mult_result [63:0] $end
$var reg 3 7 mult_state [2:0] $end
$var reg 32 8 partial_product_1 [31:0] $end
$var reg 32 9 partial_product_2 [31:0] $end
$var reg 32 : partial_product_3 [31:0] $end
$var reg 32 ; partial_product_4 [31:0] $end
$var reg 32 < q [31:0] $end
$var reg 1 " ready $end
$var reg 32 = result [31:0] $end
$var reg 32 > root [31:0] $end
$var reg 1 ? root_ready $end
$var reg 2 @ sqrt_state [1:0] $end
$var reg 64 A x [63:0] $end
$var reg 66 B y [65:0] $end
$scope module multiplier $end
$var wire 16 C operand_1 [15:0] $end
$var wire 16 D operand_2 [15:0] $end
$var reg 32 E product [31:0] $end
$upscope $end
$upscope $end
$upscope $end
$enddefinitions $end
$comment Show the parameter values. $end
$dumpall
b100000 1
b0 0
b1010 /
b10 .
b1 -
b100 #
$end
#0
$dumpvars
b0 E
b0 D
b0 C
b0 B
b0 A
b0 @
0?
b0 >
bz =
b0 <
b0 ;
b0 :
b0 9
b0 8
b0 7
b0 6
05
b0 4
b0 3
b0 2
b0 ,
bx +
bx *
bx )
1(
bx '
bx &
bx %
1$
0"
bz !
$end
#2
0$
#4
1$
#6
0$
#8
1$
#10
0$
#12
0(
1$
#14
0$
#16
1$
#18
0$
#20
1"
b1111011000000 !
b1111011000000 =
b0 '
b0 +
b1000001000000 &
b1000001000000 *
b111010000000 %
b111010000000 )
1$
#22
0$
#24
0"
bz !
bz =
bz '
bz +
bz &
bz *
bz %
bz )
1$
#26
0$
#28
1"
b100010000000 !
b100010000000 =
b1 '
b1 +
b11000000000 &
b11000000000 *
b111010000000 %
b111010000000 )
1$
#30
0$
#32
0"
bz !
bz =
bz '
bz +
bz &
bz *
bz %
bz )
1$
#34
0$
#36
b10101110000000000000000 ,
b10101110000000000000000 E
b0 !
b0 =
b1 7
b11000000000 4
b11000000000 D
b111010000000 3
b111010000000 C
b10 '
b10 +
b11000000000 &
b11000000000 *
b111010000000 %
b111010000000 )
1$
#38
0$
#40
b0 ,
b0 E
b10 7
b0 3
b0 C
b10101110000000000000000 8
1$
#42
0$
#44
b11 7
b0 4
b0 D
b111010000000 3
b111010000000 C
1$
#46
0$
#48
b100 7
b0 3
b0 C
1$
#50
0$
#52
b101 7
1$
#54
0$
#56
1"
b1010111000000 !
b1010111000000 =
b0 7
15
b10101110000000000000000 6
1$
#58
0$
#60
0"
bz !
bz =
bz '
bz +
bz &
bz *
bz %
bz )
1$
#62
0$
#64
b0 !
b0 =
b1 @
b100000000000000000000000000000000000000000000000000000000000000 2
b1110011000000000000000000000000000000000000000000 A
b11 '
b11 +
b11100110000000000 %
b11100110000000000 )
1$
#66
0$
#68
b1000000000000000000000000000000000000000000000000000000000000 2
b100000000000000000000000000000000000000000000000000000000000000 B
b10000000000000000000000000000000 <
1$
#70
0$
#72
b10000000000000000000000000000000000000000000000000000000000 2
b1000000000000000000000000000000 <
b0 B
1$
#74
0$
#76
b100000000000000000000000000000000000000000000000000000000 2
b10010000000000000000000000000000000000000000000000000000000000 B
b1001000000000000000000000000000 <
1$
#78
0$
#80
b1000000000000000000000000000000000000000000000000000000 2
b100100000000000000000000000000 <
b0 B
1$
#82
0$
#84
b10000000000000000000000000000000000000000000000000000 2
b1001001000000000000000000000000000000000000000000000000000000 B
b100100100000000000000000000000 <
1$
#86
0$
#88
b100000000000000000000000000000000000000000000000000 2
b10010010000000000000000000000 <
b0 B
1$
#90
0$
#92
b1000000000000000000000000000000000000000000000000 2
b100100100100000000000000000000000000000000000000000000000000 B
b10010010010000000000000000000 <
1$
#94
0$
#96
b10000000000000000000000000000000000000000000000 2
b1001001001000000000000000000 <
b0 B
1$
#98
0$
#100
b100000000000000000000000000000000000000000000 2
b10010010010010000000000000000000000000000000000000000000000 B
b1001001001001000000000000000 <
1$
#102
0$
#104
b1000000000000000000000000000000000000000000 2
b100100100100100000000000000 <
b0 B
1$
#106
0$
#108
b10000000000000000000000000000000000000000 2
b1001001001001001000000000000000000000000000000000000000000 B
b100100100100100100000000000 <
1$
#110
0$
#112
b100000000000000000000000000000000000000 2
b10010010010010010000000000 <
b0 B
1$
#114
0$
#116
b1000000000000000000000000000000000000 2
b100100100100100100100000000000000000000000000000000000000 B
b10010010010010010010000000 <
1$
#118
0$
#120
b10000000000000000000000000000000000 2
b1001001001001001001000000 <
b0 B
1$
#122
0$
#124
b100000000000000000000000000000000 2
b10010010010010010010010000000000000000000000000000000000 B
b1001001001001001001001000 <
1$
#126
0$
#128
b1000000000000000000000000000000 2
b100100100100100100100100 <
b0 B
1$
#130
0$
#132
b10000000000000000000000000000 2
b1001001001001001001001001000000000000000000000000000000 B
1$
#134
0$
#136
b100000000000000000000000000 2
b10010010010010010010010 <
b1000000000000000000000000000000 B
1$
#138
0$
#140
b1000000000000000000000000 2
b100100100100100100100101000100000000000000000000000000 B
1$
#142
0$
#144
b10000000000000000000000 2
b1001001001001001001001 <
b1000100000000000000000000000000 B
1$
#146
0$
#148
b100000000000000000000 2
b10010010010010010010011000100010000000000000000000000 B
1$
#150
0$
#152
b1000000000000000000 2
b100100100100100100100 <
b1000100010000000000000000000000 B
1$
#154
0$
#156
b10000000000000000 2
b1001001001001001001001000100010001000000000000000000 B
1$
#158
0$
#160
b100000000000000 2
b10010010010010010010 <
b1000100010001000000000000000000 B
1$
#162
0$
#164
b1000000000000 2
b100100100100100100101000100010001000100000000000000 B
1$
#166
0$
#168
b10000000000 2
b1001001001001001001 <
b1000100010001000100000000000000 B
1$
#170
0$
#172
b100000000 2
b10010010010010010011000100010001000100010000000000 B
1$
#174
0$
#176
b1000000 2
b100100100100100100 <
b1000100010001000100010000000000 B
1$
#178
0$
#180
b10000 2
b1001001001001001001000100010001000100010001000000 B
1$
#182
0$
#184
b100 2
b10010010010010010001000100010001000100010001010000 B
1$
#186
0$
#188
b1 2
b10010010010010010 <
b1001001001001001001000100010001000100010001010000 B
1$
#190
0$
#192
b0 2
b1101101101101101101000100010001000100010001010001 B
1$
#194
0$
#196
b10 @
1$
#198
0$
#200
1"
b10010010010010010 !
b10010010010010010 =
b0 @
1?
b10010010010010010 >
1$
#202
0$
#204
0"
0?
b1 @
b0 <
b0 B
b100000000000000000000000000000000000000000000000000000000000000 2
1$
#206
0$
#208
b1000000000000000000000000000000000000000000000000000000000000 2
b100000000000000000000000000000000000000000000000000000000000000 B
b10000000000000000000000000000000 <
1$
#210
0$
#212
bz !
bz =
bz '
bz +
bz %
bz )
1$
#214
0$
#216
1$
#218
0$
#220
1$
#222
0$
#224
1$
#226
0$
#228
1$
#230
0$
#232
1$
#234
0$
#236
1$
#238
0$
#240
1$
#242
0$
#244
1$
#246
0$
#248
1$
#250
0$
#252
$dumpoff
bx E
bx D
bx C
bx B
bx A
bx @
x?
bx >
bx =
bx <
bx ;
bx :
bx 9
bx 8
bx 7
bx 6
x5
bx 4
bx 3
bx 2
bx ,
bx +
bx *
bx )
x(
bx '
bx &
bx %
x$
x"
bx !
$end
1$
