Fixed_Point_Unit.vcd
$date
	Wed Jul 03 01:09:33 2024
$end
$version
	Icarus Verilog
$end
$timescale
	1ns
$end
$scope module Fixed_Point_Unit_Testbench $end
$var wire 32 ! fpu_result [31:0] $end
$var wire 1 " fpu_ready $end
$var parameter 32 # CLK_PERIOD $end
$var reg 1 $ clk $end
$var reg 32 % operand_1 [31:0] $end
$var reg 32 & operand_2 [31:0] $end
$var reg 2 ' operation [1:0] $end
$var reg 1 ( reset $end
$scope module uut $end
$var wire 1 $ clk $end
$var wire 32 ) operand_1 [31:0] $end
$var wire 32 * operand_2 [31:0] $end
$var wire 2 + operation [1:0] $end
$var wire 1 ( reset $end
$var wire 32 , mul_result [31:0] $end
$var parameter 32 - FBITS $end
$var parameter 2 . SQRT_CALC $end
$var parameter 2 / SQRT_DONE $end
$var parameter 2 0 SQRT_IDLE $end
$var parameter 2 1 SQRT_START $end
$var parameter 32 2 WIDTH $end
$var reg 32 3 P1 [31:0] $end
$var reg 32 4 P2 [31:0] $end
$var reg 32 5 P3 [31:0] $end
$var reg 32 6 P4 [31:0] $end
$var reg 34 7 acc [33:0] $end
$var reg 34 8 acc_next [33:0] $end
$var reg 5 9 iter_count [4:0] $end
$var reg 16 : mul_op1 [15:0] $end
$var reg 16 ; mul_op2 [15:0] $end
$var reg 3 < mul_state [2:0] $end
$var reg 64 = product [63:0] $end
$var reg 1 > product_ready $end
$var reg 32 ? quotient [31:0] $end
$var reg 32 @ quotient_next [31:0] $end
$var reg 1 " ready $end
$var reg 32 A remainder [31:0] $end
$var reg 32 B remainder_next [31:0] $end
$var reg 32 C result [31:0] $end
$var reg 1 D sqrt_busy $end
$var reg 1 E sqrt_done $end
$var reg 1 F sqrt_init $end
$var reg 2 G sqrt_next_state [1:0] $end
$var reg 32 H sqrt_result [31:0] $end
$var reg 2 I sqrt_state [1:0] $end
$var reg 34 J test_sub [33:0] $end
$scope module multiplier $end
$var wire 16 K operand_1 [15:0] $end
$var wire 16 L operand_2 [15:0] $end
$var reg 32 M product [31:0] $end
$upscope $end
$upscope $end
$upscope $end
$enddefinitions $end
$comment Show the parameter values. $end
$dumpall
b100000 2
b1 1
b0 0
b11 /
b10 .
b1010 -
b100 #
$end
#0
$dumpvars
b0 M
b0 L
b0 K
bx J
b0 I
bx H
b0 G
xF
0E
xD
bz C
bx B
bx A
bx @
bx ?
0>
b0 =
b0 <
b0 ;
b0 :
b0 9
bx 8
bx 7
b0 6
b0 5
b0 4
b0 3
b0 ,
bx +
bx *
bx )
1(
bx '
bx &
bx %
1$
0"
bz !
$end
#2
0$
#4
1$
#6
0$
#8
1$
#10
0$
#12
0(
1$
#14
0$
#16
1$
#18
0$
#20
1"
b1111011000000 !
b1111011000000 C
b0 '
b0 +
b1000001000000 &
b1000001000000 *
b111010000000 %
b111010000000 )
1$
#22
0$
#24
0"
bz !
bz C
bz '
bz +
bz &
bz *
bz %
bz )
1$
#26
0$
#28
1"
b100010000000 !
b100010000000 C
b1 '
b1 +
b11000000000 &
b11000000000 *
b111010000000 %
b111010000000 )
1$
#30
0$
#32
0"
bz !
bz C
bz '
bz +
bz &
bz *
bz %
bz )
1$
#34
0$
#36
b10101110000000000000000 ,
b10101110000000000000000 M
b0 !
b0 C
b1 <
b11000000000 ;
b11000000000 L
b111010000000 :
b111010000000 K
b10 '
b10 +
b11000000000 &
b11000000000 *
b111010000000 %
b111010000000 )
1$
#38
0$
#40
b0 ,
b0 M
b10 <
b0 :
b0 K
b10101110000000000000000 3
1$
#42
0$
#44
b11 <
b0 ;
b0 L
b111010000000 :
b111010000000 K
1$
#46
0$
#48
b100 <
b0 :
b0 K
1$
#50
0$
#52
b101 <
1$
#54
0$
#56
1"
b1010111000000 !
b1010111000000 C
b0 <
1>
b10101110000000000000000 =
1$
#58
0$
#60
0"
bz !
bz C
bz '
bz +
bz &
bz *
bz %
bz )
1$
#62
0$
#64
0F
bx !
bx C
b1 G
b11 '
b11 +
b11100110000000000 %
b11100110000000000 )
1$
#66
0$
#68
1F
b10 G
b1 I
1$
#70
0$
#72
0F
b0 @
b0 8
b111001100000000000000 B
b1111111111111111111111111111111111 J
b10 I
b0 7
b1110011000000000000 A
b0 ?
1D
1$
#74
0$
#76
b11100110000000000000000 B
b111001100000000000000 A
b1 9
1$
#78
0$
#80
b1110011000000000000000000 B
b11100110000000000000000 A
b10 9
1$
#82
0$
#84
b111001100000000000000000000 B
b1110011000000000000000000 A
b11 9
1$
#86
0$
#88
b11100110000000000000000000000 B
b111001100000000000000000000 A
b100 9
1$
#90
0$
#92
b1110011000000000000000000000000 B
b11100110000000000000000000000 A
b101 9
1$
#94
0$
#96
b1 8
b11001100000000000000000000000000 B
b1110011000000000000000000000000 A
b110 9
1$
#98
0$
#100
b1 @
b11 8
b110000000000000000000000000000 B
b0 J
b1 7
b11001100000000000000000000000000 A
b111 9
1$
#102
0$
#104
b10 @
b1100 8
b11000000000000000000000000000000 B
b1111111111111111111111111111111110 J
b1 ?
b11 7
b110000000000000000000000000000 A
b1000 9
1$
#106
0$
#108
b101 @
b1111 8
b0 B
b11 J
b10 ?
b1100 7
b11000000000000000000000000000000 A
b1001 9
1$
#110
0$
#112
b1010 @
b111100 8
b1111111111111111111111111111111010 J
b101 ?
b1111 7
b0 A
b1010 9
1$
#114
0$
#116
b10101 @
b1001100 8
b10011 J
b1010 ?
b111100 7
b1011 9
1$
#118
0$
#120
b101010 @
b100110000 8
b1111111111111111111111111111110111 J
b10101 ?
b1001100 7
b1100 9
1$
#122
0$
#124
b1010101 @
b1000011100 8
b10000111 J
b101010 ?
b100110000 7
b1101 9
1$
#126
0$
#128
b10101011 @
b1100011100 8
b11000111 J
b1010101 ?
b1000011100 7
b1110 9
1$
#130
0$
#132
b101010111 @
b110111100 8
b1101111 J
b10101011 ?
b1100011100 7
b1111 9
1$
#134
0$
#136
b1010101110 @
b11011110000 8
b1111111111111111111111110001011111 J
b101010111 ?
b110111100 7
b10000 9
1$
#138
0$
#140
b10101011100 @
b1101111000000 8
b1111111111111111111111110000110111 J
b1010101110 ?
b11011110000 7
b10001 9
1$
#142
0$
#144
b101010111001 @
b1100100111100 8
b11001001111 J
b10101011100 ?
b1101111000000 7
b10010 9
1$
#146
0$
#148
b1010101110010 @
b110010011110000 8
b1111111111111111111110111001010111 J
b101010111001 ?
b1100100111100 7
b10011 9
1$
#150
0$
#152
b10101011100101 @
b11110010011100 8
b111100100111 J
b11 G
b1010101110010 ?
b110010011110000 7
b10100 9
1$
#154
0$
#156
1"
b10101011100101 !
b10101011100101 C
b0 G
b10101011100101 H
1E
0D
b11 I
1$
#158
0$
#160
0"
b1 G
0E
b0 I
1$
#162
0$
#164
1F
b10 G
b1 I
1$
#166
0$
#168
b0 @
b0zzzz 8
bz0000 B
bx J
bz !
bz C
b0 I
b0zz 7
bz00 A
b0 ?
b0 9
1D
b0 G
bz '
bz +
bz %
bz )
1$
#170
0$
#172
1$
#174
0$
#176
1$
#178
0$
#180
1$
#182
0$
#184
1$
#186
0$
#188
1$
#190
0$
#192
1$
#194
0$
#196
1$
#198
0$
#200
1$
#202
0$
#204
1$
#206
0$
#208
$dumpoff
bx M
bx L
bx K
bx J
bx I
bx H
bx G
xF
xE
xD
bx C
bx B
bx A
bx @
bx ?
x>
bx =
bx <
bx ;
bx :
bx 9
bx 8
bx 7
bx 6
bx 5
bx 4
bx 3
bx ,
bx +
bx *
bx )
x(
bx '
bx &
bx %
x$
x"
bx !
$end
1$
